<svg width="1198px" height="512px" viewBox="0 0 1198 512" version="1.1" xmlns="http://www.w3.org/2000/svg" xmlns:xlink="http://www.w3.org/1999/xlink">

    <defs></defs>
    <g id="Page-1" stroke="none" stroke-width="1" fill="none" fill-rule="evenodd">
        <g id="Home" transform="translate(-2.000000, -2469.000000)" stroke="#E0E3E7" stroke-width="3">
            <path d="M2,2979 C152.574219,2979 264.085938,2875.98529 444.947754,2875.98529 C625.80957,2875.98529 627.138584,2901.63742 797.407183,2747.5684 C967.675781,2593.49938 1120.59375,2682.08282 1202,2468" id="Path-2-Copy"></path>
        </g>
    </g>
</svg>