<?xml version="1.0" encoding="utf-8"?>
<!-- Generator: Adobe Illustrator 16.0.0, SVG Export Plug-In . SVG Version: 6.00 Build 0)  -->
<!DOCTYPE svg PUBLIC "-//W3C//DTD SVG 1.1//EN" "http://www.w3.org/Graphics/SVG/1.1/DTD/svg11.dtd">
<svg version="1.1" id="Layer_1" xmlns="http://www.w3.org/2000/svg" xmlns:xlink="http://www.w3.org/1999/xlink" x="0px" y="0px"
	 width="1390px" height="698px" viewBox="0 0 1390 698" enable-background="new 0 0 1390 698" xml:space="preserve">
<desc>Created with Sketch.</desc>
<g id="Page-1" opacity="0.13">
	<g id="Group-14">
		
			<g id="Group-Copy" transform="translate(695.000000, 523.500000) rotate(180.000000) translate(-695.000000, -523.500000) translate(0.000000, 349.000000)">
			<path id="Stroke-1" fill="none" stroke="#063D66" stroke-width="1.5" stroke-linecap="round" stroke-linejoin="round" d="
				M0.785,348.316V0.78"/>
			<path id="Stroke-3" fill="none" stroke="#063D66" stroke-width="1.5" stroke-linecap="round" stroke-linejoin="round" d="
				M347.893,348.316L0.785,0.78"/>
			<path id="Stroke-5" fill="none" stroke="#063D66" stroke-width="1.5" stroke-linecap="round" stroke-linejoin="round" d="
				M695,348.316L0.785,0.78"/>
			<path id="Stroke-7" fill="none" stroke="#063D66" stroke-width="1.5" stroke-linecap="round" stroke-linejoin="round" d="
				M1042.107,348.316L0.785,0.78"/>
			<path id="Stroke-9" fill="none" stroke="#063D66" stroke-width="1.5" stroke-linecap="round" stroke-linejoin="round" d="
				M1389.215,348.316L0.785,0.78"/>
			<path id="Stroke-11" fill="none" stroke="#063D66" stroke-width="1.5" stroke-linecap="round" stroke-linejoin="round" d="
				M0.785,348.316L463.595,0.78"/>
			<path id="Stroke-13" fill="none" stroke="#063D66" stroke-width="1.5" stroke-linecap="round" stroke-linejoin="round" d="
				M347.893,348.316L463.595,0.78"/>
			<path id="Stroke-15" fill="none" stroke="#063D66" stroke-width="1.5" stroke-linecap="round" stroke-linejoin="round" d="
				M695,348.316L463.595,0.78"/>
			<path id="Stroke-17" fill="none" stroke="#063D66" stroke-width="1.5" stroke-linecap="round" stroke-linejoin="round" d="
				M1042.107,348.316L463.595,0.78"/>
			<path id="Stroke-19" fill="none" stroke="#063D66" stroke-width="1.5" stroke-linecap="round" stroke-linejoin="round" d="
				M1389.215,348.316L463.595,0.78"/>
			<path id="Stroke-21" fill="none" stroke="#063D66" stroke-width="1.5" stroke-linecap="round" stroke-linejoin="round" d="
				M0.785,348.316L232.19,0.78"/>
			<path id="Stroke-23" fill="none" stroke="#063D66" stroke-width="1.5" stroke-linecap="round" stroke-linejoin="round" d="
				M347.893,348.316L232.19,0.78"/>
			<path id="Stroke-25" fill="none" stroke="#063D66" stroke-width="1.5" stroke-linecap="round" stroke-linejoin="round" d="
				M695,348.316L232.19,0.78"/>
			<path id="Stroke-27" fill="none" stroke="#063D66" stroke-width="1.5" stroke-linecap="round" stroke-linejoin="round" d="
				M1042.107,348.316L232.19,0.78"/>
			<path id="Stroke-29" fill="none" stroke="#063D66" stroke-width="1.5" stroke-linecap="round" stroke-linejoin="round" d="
				M1389.215,348.316L232.19,0.78"/>
			<path id="Stroke-31" fill="none" stroke="#063D66" stroke-width="1.5" stroke-linecap="round" stroke-linejoin="round" d="
				M0.785,348.316L926.405,0.78"/>
			<path id="Stroke-33" fill="none" stroke="#063D66" stroke-width="1.5" stroke-linecap="round" stroke-linejoin="round" d="
				M347.893,348.316L926.405,0.78"/>
			<path id="Stroke-35" fill="none" stroke="#063D66" stroke-width="1.5" stroke-linecap="round" stroke-linejoin="round" d="
				M695,348.316L926.405,0.78"/>
			<path id="Stroke-37" fill="none" stroke="#063D66" stroke-width="1.5" stroke-linecap="round" stroke-linejoin="round" d="
				M1042.107,348.316L926.405,0.78"/>
			<path id="Stroke-39" fill="none" stroke="#063D66" stroke-width="1.5" stroke-linecap="round" stroke-linejoin="round" d="
				M1389.215,348.316L926.405,0.78"/>
			<path id="Stroke-41" fill="none" stroke="#063D66" stroke-width="1.5" stroke-linecap="round" stroke-linejoin="round" d="
				M0.785,348.316L695,0.78"/>
			<path id="Stroke-43" fill="none" stroke="#063D66" stroke-width="1.5" stroke-linecap="round" stroke-linejoin="round" d="
				M347.893,348.316L695,0.78"/>
			<path id="Stroke-45" fill="none" stroke="#063D66" stroke-width="1.5" stroke-linecap="round" stroke-linejoin="round" d="
				M695,348.316V0.78"/>
			<path id="Stroke-47" fill="none" stroke="#063D66" stroke-width="1.5" stroke-linecap="round" stroke-linejoin="round" d="
				M1042.107,348.316L695,0.78"/>
			<path id="Stroke-49" fill="none" stroke="#063D66" stroke-width="1.5" stroke-linecap="round" stroke-linejoin="round" d="
				M1389.215,348.316L695,0.78"/>
			<path id="Stroke-51" fill="none" stroke="#063D66" stroke-width="1.5" stroke-linecap="round" stroke-linejoin="round" d="
				M0.785,348.316L1157.81,0.78"/>
			<path id="Stroke-53" fill="none" stroke="#063D66" stroke-width="1.5" stroke-linecap="round" stroke-linejoin="round" d="
				M347.893,348.316L1157.81,0.78"/>
			<path id="Stroke-55" fill="none" stroke="#063D66" stroke-width="1.5" stroke-linecap="round" stroke-linejoin="round" d="
				M695,348.316L1157.81,0.78"/>
			<path id="Stroke-57" fill="none" stroke="#063D66" stroke-width="1.5" stroke-linecap="round" stroke-linejoin="round" d="
				M1042.107,348.316L1157.81,0.78"/>
			<path id="Stroke-59" fill="none" stroke="#063D66" stroke-width="1.5" stroke-linecap="round" stroke-linejoin="round" d="
				M1389.215,348.316L1157.81,0.78"/>
			<path id="Stroke-61" fill="none" stroke="#063D66" stroke-width="1.5" stroke-linecap="round" stroke-linejoin="round" d="
				M0.785,348.316L1389.215,0.78"/>
			<path id="Stroke-63" fill="none" stroke="#063D66" stroke-width="1.5" stroke-linecap="round" stroke-linejoin="round" d="
				M347.893,348.316L1389.215,0.78"/>
			<path id="Stroke-65" fill="none" stroke="#063D66" stroke-width="1.5" stroke-linecap="round" stroke-linejoin="round" d="
				M695,348.316L1389.215,0.78"/>
			<path id="Stroke-67" fill="none" stroke="#063D66" stroke-width="1.5" stroke-linecap="round" stroke-linejoin="round" d="
				M1042.107,348.316L1389.215,0.78"/>
		</g>
		
			<g id="Group-Copy-2" transform="translate(695.000000, 174.500000) rotate(-360.000000) translate(-695.000000, -174.500000) translate(0.000000, 0.000000)">
			<path id="Stroke-1_1_" fill="none" stroke="#063D66" stroke-width="1.5" stroke-linecap="round" stroke-linejoin="round" d="
				M0.785,348.316V0.78"/>
			<path id="Stroke-3_1_" fill="none" stroke="#063D66" stroke-width="1.5" stroke-linecap="round" stroke-linejoin="round" d="
				M347.893,348.316L0.785,0.78"/>
			<path id="Stroke-5_1_" fill="none" stroke="#063D66" stroke-width="1.5" stroke-linecap="round" stroke-linejoin="round" d="
				M695,348.316L0.785,0.78"/>
			<path id="Stroke-7_1_" fill="none" stroke="#063D66" stroke-width="1.5" stroke-linecap="round" stroke-linejoin="round" d="
				M1042.107,348.316L0.785,0.78"/>
			<path id="Stroke-9_1_" fill="none" stroke="#063D66" stroke-width="1.5" stroke-linecap="round" stroke-linejoin="round" d="
				M1389.215,348.316L0.785,0.78"/>
			<path id="Stroke-11_1_" fill="none" stroke="#063D66" stroke-width="1.5" stroke-linecap="round" stroke-linejoin="round" d="
				M0.785,348.316L463.595,0.78"/>
			<path id="Stroke-13_1_" fill="none" stroke="#063D66" stroke-width="1.5" stroke-linecap="round" stroke-linejoin="round" d="
				M347.893,348.316L463.595,0.78"/>
			<path id="Stroke-15_1_" fill="none" stroke="#063D66" stroke-width="1.5" stroke-linecap="round" stroke-linejoin="round" d="
				M695,348.316L463.595,0.78"/>
			<path id="Stroke-17_1_" fill="none" stroke="#063D66" stroke-width="1.5" stroke-linecap="round" stroke-linejoin="round" d="
				M1042.107,348.316L463.595,0.78"/>
			<path id="Stroke-19_1_" fill="none" stroke="#063D66" stroke-width="1.5" stroke-linecap="round" stroke-linejoin="round" d="
				M1389.215,348.316L463.595,0.78"/>
			<path id="Stroke-21_1_" fill="none" stroke="#063D66" stroke-width="1.5" stroke-linecap="round" stroke-linejoin="round" d="
				M0.785,348.316L232.19,0.78"/>
			<path id="Stroke-23_1_" fill="none" stroke="#063D66" stroke-width="1.5" stroke-linecap="round" stroke-linejoin="round" d="
				M347.893,348.316L232.19,0.78"/>
			<path id="Stroke-25_1_" fill="none" stroke="#063D66" stroke-width="1.5" stroke-linecap="round" stroke-linejoin="round" d="
				M695,348.316L232.19,0.78"/>
			<path id="Stroke-27_1_" fill="none" stroke="#063D66" stroke-width="1.5" stroke-linecap="round" stroke-linejoin="round" d="
				M1042.107,348.316L232.19,0.78"/>
			<path id="Stroke-29_1_" fill="none" stroke="#063D66" stroke-width="1.5" stroke-linecap="round" stroke-linejoin="round" d="
				M1389.215,348.316L232.19,0.78"/>
			<path id="Stroke-31_1_" fill="none" stroke="#063D66" stroke-width="1.5" stroke-linecap="round" stroke-linejoin="round" d="
				M0.785,348.316L926.405,0.78"/>
			<path id="Stroke-33_1_" fill="none" stroke="#063D66" stroke-width="1.5" stroke-linecap="round" stroke-linejoin="round" d="
				M347.893,348.316L926.405,0.78"/>
			<path id="Stroke-35_1_" fill="none" stroke="#063D66" stroke-width="1.5" stroke-linecap="round" stroke-linejoin="round" d="
				M695,348.316L926.405,0.78"/>
			<path id="Stroke-37_1_" fill="none" stroke="#063D66" stroke-width="1.5" stroke-linecap="round" stroke-linejoin="round" d="
				M1042.107,348.316L926.405,0.78"/>
			<path id="Stroke-39_1_" fill="none" stroke="#063D66" stroke-width="1.5" stroke-linecap="round" stroke-linejoin="round" d="
				M1389.215,348.316L926.405,0.78"/>
			<path id="Stroke-41_1_" fill="none" stroke="#063D66" stroke-width="1.5" stroke-linecap="round" stroke-linejoin="round" d="
				M0.785,348.316L695,0.78"/>
			<path id="Stroke-43_1_" fill="none" stroke="#063D66" stroke-width="1.5" stroke-linecap="round" stroke-linejoin="round" d="
				M347.893,348.316L695,0.78"/>
			<path id="Stroke-45_1_" fill="none" stroke="#063D66" stroke-width="1.5" stroke-linecap="round" stroke-linejoin="round" d="
				M695,348.316V0.78"/>
			<path id="Stroke-47_1_" fill="none" stroke="#063D66" stroke-width="1.5" stroke-linecap="round" stroke-linejoin="round" d="
				M1042.107,348.316L695,0.78"/>
			<path id="Stroke-49_1_" fill="none" stroke="#063D66" stroke-width="1.5" stroke-linecap="round" stroke-linejoin="round" d="
				M1389.215,348.316L695,0.78"/>
			<path id="Stroke-51_1_" fill="none" stroke="#063D66" stroke-width="1.5" stroke-linecap="round" stroke-linejoin="round" d="
				M0.785,348.316L1157.81,0.78"/>
			<path id="Stroke-53_1_" fill="none" stroke="#063D66" stroke-width="1.5" stroke-linecap="round" stroke-linejoin="round" d="
				M347.893,348.316L1157.81,0.78"/>
			<path id="Stroke-55_1_" fill="none" stroke="#063D66" stroke-width="1.5" stroke-linecap="round" stroke-linejoin="round" d="
				M695,348.316L1157.81,0.78"/>
			<path id="Stroke-57_1_" fill="none" stroke="#063D66" stroke-width="1.5" stroke-linecap="round" stroke-linejoin="round" d="
				M1042.107,348.316L1157.81,0.78"/>
			<path id="Stroke-59_1_" fill="none" stroke="#063D66" stroke-width="1.5" stroke-linecap="round" stroke-linejoin="round" d="
				M1389.215,348.316L1157.81,0.78"/>
			<path id="Stroke-61_1_" fill="none" stroke="#063D66" stroke-width="1.5" stroke-linecap="round" stroke-linejoin="round" d="
				M0.785,348.316L1389.215,0.78"/>
			<path id="Stroke-63_1_" fill="none" stroke="#063D66" stroke-width="1.5" stroke-linecap="round" stroke-linejoin="round" d="
				M347.893,348.316L1389.215,0.78"/>
			<path id="Stroke-65_1_" fill="none" stroke="#063D66" stroke-width="1.5" stroke-linecap="round" stroke-linejoin="round" d="
				M695,348.316L1389.215,0.78"/>
			<path id="Stroke-67_1_" fill="none" stroke="#063D66" stroke-width="1.5" stroke-linecap="round" stroke-linejoin="round" d="
				M1042.107,348.316L1389.215,0.78"/>
		</g>
	</g>
</g>
</svg>
